Project 1
…
library(tidyverse)
covid.data <- read_csv("us_state_confirmed_case.csv")
health.data <- read_csv("Health Data.csv")

Tidying: Rearranging Wide/Long

Since both my datasets were already tidy, I chose to show my skills for rearranging datasets by making them untidy and then back to tidy. For both datasets, I pivoted them longer so that dates became repeated observations. I then pivoted them wider so that they reverted to their original form.

health.data.long <- health.data %>% pivot_longer(c(2:4), names_to = "Exercise Type", 
    values_to = "Value")
health.data.long %>% pivot_wider(names_from = "Exercise Type", 
    values_from = "Value")

## # A tibble: 371 x 4
##    Date    Distance `Flights Climbed` Steps
##    <chr>      <dbl>             <dbl> <dbl>
##  1 3/9/20     3.99                  6  8773
##  2 3/10/20    3.78                  5  8679
##  3 3/11/20    2.83                  5  6256
##  4 3/12/20    5.40                  9 11918
##  5 3/13/20    2.64                  3  5937
##  6 3/14/20    1.27                  0  2963
##  7 3/15/20    0.533                 0  1295
##  8 3/16/20    0.990                 0  2340
##  9 3/17/20    0.513                 0  1157
## 10 3/18/20    0.570                 0  1325
## # … with 361 more rows

covid.data.long <- covid.data %>% pivot_longer(c(2:3), names_to = "Covid Occurrence", 
    values_to = "Rate")
covid.data.long %>% pivot_wider(names_from = "Covid Occurrence", 
    values_from = "Rate")

## # A tibble: 371 x 3
##    Date    `Texas Covid Cases` `Texas Covid Deaths`
##    <chr>                 <dbl>                <dbl>
##  1 3/9/20                   24                    0
##  2 3/10/20                  31                    0
##  3 3/11/20                  33                    0
##  4 3/12/20                  41                    0
##  5 3/13/20                  58                    0
##  6 3/14/20                  69                    0
##  7 3/15/20                  80                    0
##  8 3/16/20                  87                    1
##  9 3/17/20                 106                    1
## 10 3/18/20                 166                    2
## # … with 361 more rows
…
